0 0.464453 0.349306 0.091406 0.123611
0 0.264453 0.361806 0.092969 0.118056
0 0.141797 0.905556 0.082031 0.125000
0 0.238672 0.607639 0.094531 0.134722
0 0.876172 0.562500 0.108594 0.150000
0 0.741797 0.714583 0.105469 0.151389
0 0.682031 0.460417 0.098438 0.106944
0 0.754297 0.593056 0.097656 0.133333
0 0.855859 0.400694 0.086719 0.118056
0 0.944531 0.418056 0.076563 0.122222
0 0.937109 0.324306 0.082031 0.095833
0 0.833984 0.306250 0.091406 0.087500
0 0.379687 0.606944 0.106250 0.136111
0 0.293750 0.477083 0.106250 0.115278
