0 0.146484 0.552778 0.292969 0.269444
0 0.394531 0.178472 0.215625 0.273611
0 0.452344 0.434028 0.212500 0.323611
0 0.599609 0.489583 0.188281 0.381944
0 0.738672 0.855556 0.241406 0.283333
0 0.920703 0.820833 0.158594 0.338889
