0 0.308203 0.592361 0.207031 0.198611
0 0.416406 0.413194 0.170312 0.173611
0 0.670313 0.072222 0.145313 0.133333
0 0.897656 0.728472 0.092188 0.198611
0 0.848828 0.529861 0.166406 0.179167
0 0.262500 0.277778 0.140625 0.152778
