0 0.432813 0.151389 0.278125 0.177778
0 0.234766 0.253472 0.171094 0.162500
0 0.478516 0.664583 0.263281 0.206944
0 0.816406 0.258333 0.178125 0.133333
0 0.861719 0.080556 0.195312 0.155556
0 0.565625 0.379167 0.323438 0.213889
