0 0.432031 0.339583 0.051562 0.081944
0 0.591797 0.843750 0.066406 0.093056
0 0.706250 0.590972 0.065625 0.104167
0 0.173828 0.304167 0.066406 0.069444
0 0.925000 0.752778 0.064062 0.075000
0 0.773047 0.911111 0.072656 0.097222
