0 0.368750 0.463194 0.128125 0.218056
0 0.472656 0.285417 0.123438 0.212500
0 0.175391 0.355556 0.182031 0.180556
0 0.882812 0.515278 0.137500 0.213889
0 0.825000 0.768056 0.189063 0.191667
0 0.122266 0.911111 0.136719 0.166667
0 0.504687 0.618056 0.154687 0.166667
